öngörücü2.sim/sim_1/behav/xsim/ongoru_cevreleyici.vcd
$date
   Thu Mar 28 21:59:30 2024
$end
$version
  2023.1
$end
$timescale
  1ps
$end
$scope module ongoru_cevreleyici $end
$var reg 6 ! count [5:0] $end
$var reg 6 " count_ns [5:0] $end
$var reg 5 # prog_ptr [4:0] $end
$var reg 5 $ prog_ptr_ns [4:0] $end
$var reg 1 % fetch_valid $end
$var reg 1 & fetch_valid_ns $end
$var reg 32 ' predicted_pc [31:0] $end
$var reg 32 ( predicted_pc_ns [31:0] $end
$var reg 1 ) prediction $end
$var reg 1 * prediction_ns $end
$var reg 1 + prediction_valid $end
$var reg 1 , prediction_valid_ns $end
$var wire 1 - bp_pred $end
$var wire 32 . bp_target [31:0] $end
$var reg 1 / clk $end
$var reg 1 0 rstn $end
$var wire 1 1 taken_mismatch $end
$var wire 1 2 pc_mismatch $end
$var wire 1 3 mispredict $end
$var wire 1 4 ongorulen_dallanma_yonu $end
$var wire 1 5 gercek_dallanma_yonu $end
$var wire 32 6 gercek_hedef_ps [31:0] $end
$var wire 32 7 ongorulen_hedef_ps [31:0] $end
$var integer 32 8 i [31:0] $end
$var wire 32 9 update_pc [31:0] $end
$var wire 32 : update_target [31:0] $end
$var wire 32 ; update_inst [31:0] $end
$var wire 1 < update_en $end
$scope module bp $end
$var wire 1 = clk $end
$var wire 1 > rst $end
$var wire 32 ? getir_ps [31:0] $end
$var wire 32 @ getir_buyruk [31:0] $end
$var wire 1 A getir_gecerli $end
$var wire 32 9 yurut_ps [31:0] $end
$var wire 32 ; yurut_buyruk [31:0] $end
$var wire 1 B yurut_dallan $end
$var wire 32 : yurut_dallan_ps [31:0] $end
$var wire 1 < yurut_gecerli $end
$var reg 1 C sonuc_dallan $end
$var reg 32 D sonuc_dallan_ps [31:0] $end
$var reg 3 E GHR [2:0] $end
$var reg 32 F instruction [31:0] $end
$var reg 32 G extendedImm [31:0] $end
$var reg 32 H BUYRUK [31:0] $end
$var wire 2 I aaa [1:0] $end
$var reg 32 J ps [31:0] $end
$var integer 32 K i [31:0] $end
$upscope $end
$upscope $end
$enddefinitions $end
#0
$dumpvars
b0 !
b0 "
b0 #
b0 $
1%
0&
b0 '
b10000001101110100 (
0)
x*
0+
1,
x-
bx .
1/
00
01
02
03
04
05
b10000001101110100 6
b0 7
b10100 8
b0 9
b0 :
b0 ;
0<
1=
0>
b10000001101110000 ?
b1111001100001100011 @
0A
0B
xC
bx D
b0 E
b0 F
bx G
bx H
b1 I
bx J
b1000 K
$end
#5000
0/
0=
#10000
1/
1=
b1000 K
#15000
0/
0=
#20000
1/
1=
b1000 K
#25000
0/
0=
#30000
1/
1=
b1000 K
#35000
0/
0=
#40000
1/
1=
b1000 K
#45000
0/
0=
#50000
1/
1=
b1000 K
#55000
0/
0=
#60000
1/
1=
b1000 K
#65000
0/
0=
#70000
1/
1=
b1000 K
#75000
0/
0=
#80000
1/
1=
b1000 K
#85000
0/
0=
#90000
1/
1=
b1000 K
#95000
0/
0=
#100000
1/
1=
b1000 K
#102000
0&
b10000001101110100 (
0*
1,
0-
b10000001101110100 .
10
1>
1A
0C
b10000001101110100 D
b1111001100001100011 F
b10000001101110000 J
#105000
0/
0=
#110000
b1 "
b1 $
0%
1&
b10000001101110100 '
b0 (
1+
0,
1/
02
03
b10000001101110100 7
b10000001101110000 9
b10000001101110100 :
b1111001100001100011 ;
1<
1=
0A
b0 I
#115000
0/
0=
#120000
b1 !
b1 #
1%
0&
b0 '
b10000001110011000 (
0+
1,
b10000001110011000 .
1/
15
b10000001101101000 6
b0 7
b0 9
b0 :
b0 ;
0<
1=
b10000001110010100 ?
b11111100111001111101101011100011 @
1A
1B
b10000001110011000 D
b11111100111001111101101011100011 F
b1 I
b10000001110010100 J
#125000
0/
0=
#130000
b10 $
0%
1&
b10000001110011000 '
b0 (
1+
0,
1/
11
12
13
b10000001110011000 7
b10000001110010100 9
b10000001101101000 :
b11111100111001111101101011100011 ;
1<
1=
0A
b1 E
b10 I
#135000
0/
0=
#140000
b10 #
1%
0&
b0 '
b10000001101110100 (
0+
1,
b10000001101110100 .
1/
01
02
03
b10000001110000000 6
b0 7
b0 9
b0 :
b0 ;
0<
1=
b10000001101110000 ?
b1111001100001100011 @
1A
b10000001101110100 D
b1111001100001100011 F
b1 I
b10000001101110000 J
#145000
0/
0=
#150000
b11 $
0%
1&
b10000001101110100 '
b0 (
1+
0,
1/
11
12
13
b10000001101110100 7
b10000001101110000 9
b10000001110000000 :
b1111001100001100011 ;
1<
1=
0A
b11 E
b10 I
#155000
0/
0=
#160000
b11 #
1%
0&
b0 '
b10000001110011000 (
0+
1,
b10000001110011000 .
1/
01
02
03
b10000001101101000 6
b0 7
b0 9
b0 :
b0 ;
0<
1=
b10000001110010100 ?
b11111100111001111101101011100011 @
1A
b10000001110011000 D
b11111100111001111101101011100011 F
b1 I
b10000001110010100 J
#165000
0/
0=
#170000
b100 $
0%
1&
b10000001110011000 '
b0 (
1+
0,
1/
11
12
13
b10000001110011000 7
b10000001110010100 9
b10000001101101000 :
b11111100111001111101101011100011 ;
1<
1=
0A
b111 E
b11 I
#175000
0/
0=
#180000
b100 #
1%
0&
b0 '
b10000001101110100 (
0+
1,
b10000001101110100 .
1/
01
02
03
05
b10000001101110100 6
b0 7
b0 9
b0 :
b0 ;
0<
1=
b10000001101110000 ?
b1111001100001100011 @
1A
0B
b10000001101110100 D
b1111001100001100011 F
b1 I
b10000001101110000 J
#185000
0/
0=
#190000
b10 "
b101 $
0%
1&
b10000001101110100 '
b0 (
1+
0,
1/
02
03
b10000001101110100 7
b10000001101110000 9
b10000001101110100 :
b1111001100001100011 ;
1<
1=
0A
b110 E
b0 I
#195000
0/
0=
#200000
b10 !
b101 #
1%
0&
b0 '
b10000001110011000 (
0+
1,
b10000001110011000 .
1/
15
b10000001101101000 6
b0 7
b0 9
b0 :
b0 ;
0<
1=
b10000001110010100 ?
b11111100111001111101101011100011 @
1A
1B
b10000001110011000 D
b11111100111001111101101011100011 F
b1 I
b10000001110010100 J
#205000
0/
0=
#210000
b110 $
0%
1&
b10000001110011000 '
b0 (
1+
0,
1/
11
12
13
b10000001110011000 7
b10000001110010100 9
b10000001101101000 :
b11111100111001111101101011100011 ;
1<
1=
0A
b101 E
b10 I
#215000
0/
0=
#220000
b110 #
1%
0&
b0 '
b10000001110000000 (
1*
0+
1,
1-
b10000001110000000 .
1/
01
02
03
b10000001110000000 6
b0 7
b0 9
b0 :
b0 ;
0<
1=
b10000001101110000 ?
b1111001100001100011 @
1A
1C
b10000001110000000 D
b1111001100001100011 F
b10000 G
b10000001101110000 J
#225000
0/
0=
#230000
b11 "
b111 $
0%
1&
b10000001110000000 '
b0 (
1)
0*
1+
0,
1/
01
02
03
14
b10000001110000000 7
b10000001101110000 9
b10000001110000000 :
b1111001100001100011 ;
1<
1=
0A
b11 E
b11 I
#235000
0/
0=
#240000
b11 !
b111 #
1%
0&
b0 '
b10000001110011000 (
0)
0*
0+
1,
0-
b10000001110011000 .
1/
04
b10000001101101000 6
b0 7
b0 9
b0 :
b0 ;
0<
1=
b10000001110010100 ?
b11111100111001111101101011100011 @
1A
0C
b10000001110011000 D
b11111100111001111101101011100011 F
b1 I
b10000001110010100 J
#245000
0/
0=
#250000
b1000 $
0%
1&
b10000001110011000 '
b0 (
1+
0,
1/
11
12
13
b10000001110011000 7
b10000001110010100 9
b10000001101101000 :
b11111100111001111101101011100011 ;
1<
1=
0A
b111 E
b11 I
#255000
0/
0=
#260000
b1000 #
1%
0&
b0 '
b10000001101110100 (
0+
1,
b10000001101110100 .
1/
01
02
03
05
b10000001101110100 6
b0 7
b0 9
b0 :
b0 ;
0<
1=
b10000001101110000 ?
b1111001100001100011 @
1A
0B
b10000001101110100 D
b1111001100001100011 F
b1 I
b10000001101110000 J
#265000
0/
0=
#270000
b100 "
b1001 $
0%
1&
b10000001101110100 '
b0 (
1+
0,
1/
02
03
b10000001101110100 7
b10000001101110000 9
b10000001101110100 :
b1111001100001100011 ;
1<
1=
0A
b110 E
b0 I
#275000
0/
0=
#280000
b100 !
b1001 #
1%
0&
b0 '
b10000001110011000 (
0+
1,
b10000001110011000 .
1/
15
b10000001101101000 6
b0 7
b0 9
b0 :
b0 ;
0<
1=
b10000001110010100 ?
b11111100111001111101101011100011 @
1A
1B
b10000001110011000 D
b11111100111001111101101011100011 F
b1 I
b10000001110010100 J
#285000
0/
0=
#290000
b1010 $
0%
1&
b10000001110011000 '
b0 (
1+
0,
1/
11
12
13
b10000001110011000 7
b10000001110010100 9
b10000001101101000 :
b11111100111001111101101011100011 ;
1<
1=
0A
b101 E
b11 I
#295000
0/
0=
#300000
b1010 #
1%
0&
b0 '
b10000001110000000 (
1*
0+
1,
1-
b10000001110000000 .
1/
01
02
03
b10000001110000000 6
b0 7
b0 9
b0 :
b0 ;
0<
1=
b10000001101110000 ?
b1111001100001100011 @
1A
1C
b10000001110000000 D
b1111001100001100011 F
b10 I
b10000001101110000 J
#305000
0/
0=
#310000
b101 "
b1011 $
0%
1&
b10000001110000000 '
b0 (
1)
0*
1+
0,
1/
01
02
03
14
b10000001110000000 7
b10000001101110000 9
b10000001110000000 :
b1111001100001100011 ;
1<
1=
0A
b11 E
b11 I
#315000
0/
0=
#320000
b101 !
b1011 #
1%
0&
b0 '
b10000001110011000 (
0)
0*
0+
1,
0-
b10000001110011000 .
1/
04
b10000001101101000 6
b0 7
b0 9
b0 :
b0 ;
0<
1=
b10000001110010100 ?
b11111100111001111101101011100011 @
1A
0C
b10000001110011000 D
b11111100111001111101101011100011 F
b1 I
b10000001110010100 J
#325000
0/
0=
#330000
b1100 $
0%
1&
b10000001110011000 '
b0 (
1+
0,
1/
11
12
13
b10000001110011000 7
b10000001110010100 9
b10000001101101000 :
b11111100111001111101101011100011 ;
1<
1=
0A
b111 E
b11 I
#335000
0/
0=
#340000
b1100 #
1%
0&
b0 '
b10000001101110100 (
0+
1,
b10000001101110100 .
1/
01
02
03
05
b10000001101110100 6
b0 7
b0 9
b0 :
b0 ;
0<
1=
b10000001101110000 ?
b1111001100001100011 @
1A
0B
b10000001101110100 D
b1111001100001100011 F
b1 I
b10000001101110000 J
#345000
0/
0=
#350000
b110 "
b1101 $
0%
1&
b10000001101110100 '
b0 (
1+
0,
1/
02
03
b10000001101110100 7
b10000001101110000 9
b10000001101110100 :
b1111001100001100011 ;
1<
1=
0A
b110 E
b0 I
#355000
0/
0=
#360000
b110 !
b1101 #
1%
0&
b0 '
b10000001110011000 (
0+
1,
b10000001110011000 .
1/
15
b10000001101101000 6
b0 7
b0 9
b0 :
b0 ;
0<
1=
b10000001110010100 ?
b11111100111001111101101011100011 @
1A
1B
b10000001110011000 D
b11111100111001111101101011100011 F
b1 I
b10000001110010100 J
#365000
0/
0=
#370000
b1110 $
0%
1&
b10000001110011000 '
b0 (
1+
0,
1/
11
12
13
b10000001110011000 7
b10000001110010100 9
b10000001101101000 :
b11111100111001111101101011100011 ;
1<
1=
0A
b101 E
b11 I
#375000
0/
0=
#380000
b1110 #
1%
0&
b0 '
b10000001110000000 (
1*
0+
1,
1-
b10000001110000000 .
1/
01
02
03
b10000001110000000 6
b0 7
b0 9
b0 :
b0 ;
0<
1=
b10000001101110000 ?
b1111001100001100011 @
1A
1C
b10000001110000000 D
b1111001100001100011 F
b10 I
b10000001101110000 J
#385000
0/
0=
#390000
b111 "
b1111 $
0%
1&
b10000001110000000 '
b0 (
1)
0*
1+
0,
1/
01
02
03
14
b10000001110000000 7
b10000001101110000 9
b10000001110000000 :
b1111001100001100011 ;
1<
1=
0A
b11 E
b11 I
#395000
0/
0=
#400000
b111 !
b1111 #
1%
0&
b0 '
b10000001110011000 (
0)
0*
0+
1,
0-
b10000001110011000 .
1/
04
b10000001101101000 6
b0 7
b0 9
b0 :
b0 ;
0<
1=
b10000001110010100 ?
b11111100111001111101101011100011 @
1A
0C
b10000001110011000 D
b11111100111001111101101011100011 F
b1 I
b10000001110010100 J
#405000
0/
0=
#410000
b10000 $
0%
1&
b10000001110011000 '
b0 (
1+
0,
1/
11
12
13
b10000001110011000 7
b10000001110010100 9
b10000001101101000 :
b11111100111001111101101011100011 ;
1<
1=
0A
b111 E
b11 I
#415000
0/
0=
#420000
b10000 #
1%
0&
b0 '
b10000001101110100 (
0+
1,
b10000001101110100 .
1/
01
02
03
05
b10000001101110100 6
b0 7
b0 9
b0 :
b0 ;
0<
1=
b10000001101110000 ?
b1111001100001100011 @
1A
0B
b10000001101110100 D
b1111001100001100011 F
b1 I
b10000001101110000 J
#425000
0/
0=
#430000
b1000 "
b10001 $
0%
1&
b10000001101110100 '
b0 (
1+
0,
1/
02
03
b10000001101110100 7
b10000001101110000 9
b10000001101110100 :
b1111001100001100011 ;
1<
1=
0A
b110 E
b0 I
#435000
0/
0=
#440000
b1000 !
b10001 #
1%
0&
b0 '
b10000001110011000 (
0+
1,
b10000001110011000 .
1/
15
b10000001101101000 6
b0 7
b0 9
b0 :
b0 ;
0<
1=
b10000001110010100 ?
b11111100111001111101101011100011 @
1A
1B
b10000001110011000 D
b11111100111001111101101011100011 F
b1 I
b10000001110010100 J
#445000
0/
0=
#450000
b10010 $
0%
1&
b10000001110011000 '
b0 (
1+
0,
1/
11
12
13
b10000001110011000 7
b10000001110010100 9
b10000001101101000 :
b11111100111001111101101011100011 ;
1<
1=
0A
b101 E
b11 I
#455000
0/
0=
#460000
b10010 #
1%
0&
b0 '
b10000001110000000 (
1*
0+
1,
1-
b10000001110000000 .
1/
01
02
03
b10000001110000000 6
b0 7
b0 9
b0 :
b0 ;
0<
1=
b10000001101110000 ?
b1111001100001100011 @
1A
1C
b10000001110000000 D
b1111001100001100011 F
b10 I
b10000001101110000 J
#465000
0/
0=
#470000
b1001 "
b10011 $
0%
1&
b10000001110000000 '
b0 (
1)
0*
1+
0,
1/
01
02
03
14
b10000001110000000 7
b10000001101110000 9
b10000001110000000 :
b1111001100001100011 ;
1<
1=
0A
b11 E
b11 I
#475000
0/
0=
#480000
b1001 !
b10011 #
1%
0&
b0 '
b10000001110011000 (
0)
0*
0+
1,
0-
b10000001110011000 .
1/
04
05
b10000001110011000 6
b0 7
b0 9
b0 :
b0 ;
0<
1=
b10000001110010100 ?
b11111100111001111101101011100011 @
1A
0B
0C
b10000001110011000 D
b11111100111001111101101011100011 F
b1 I
b10000001110010100 J
#485000
0/
0=
#490000
b1010 "
b10100 $
0%
1&
b10000001110011000 '
b0 (
1+
0,
1/
02
03
b10000001110011000 7
b10000001110010100 9
b10000001110011000 :
b11111100111001111101101011100011 ;
1<
1=
0A
b110 E
b0 I
#495000
0/
0=
#500000
b1010 !
b10100 #
1%
0&
b0 '
bx (
x*
0+
1,
x-
bx .
1/
x5
bx 6
b0 7
b0 9
b0 :
b0 ;
0<
1=
bx ?
bx @
1A
xB
xC
bx D
bx F
bx I
bx J
#505000
0/
0=
#510000
b1011 "
b10101 $
0%
1&
bx '
b0 (
x)
0*
1+
0,
1/
01
02
03
x4
bx 7
bx 9
bx :
bx ;
1<
1=
0A
b10x E
